<?xml version="1.0" encoding="utf-8"?>
<!-- Generator: Adobe Illustrator 16.0.3, SVG Export Plug-In . SVG Version: 6.00 Build 0)  -->
<!DOCTYPE svg PUBLIC "-//W3C//DTD SVG 1.1//EN" "http://www.w3.org/Graphics/SVG/1.1/DTD/svg11.dtd">
<svg version="1.1" xmlns="http://www.w3.org/2000/svg" xmlns:xlink="http://www.w3.org/1999/xlink" x="0px" y="0px" width="700px"
	 height="700px" viewBox="0 0 700 700" enable-background="new 0 0 700 700" xml:space="preserve">
<g id="Ebene_2">
	<rect x="0" y="0" fill="#88B04B" width="700" height="700"/>
</g>
<g id="Ebene_1">
	<path fill="#FFFFFF" d="M400.632,261.326H87.328c-20.167,0-36.516,16.349-36.516,36.516v264.859
		c0,20.167,16.349,36.517,36.516,36.517h313.304c20.167,0,36.517-16.35,36.517-36.517V297.477
		C436.947,277.452,420.657,261.325,400.632,261.326z M129.929,313.544c0,4.975-4.032,9.007-9.008,9.007H90.736
		c-4.975,0-9.008-4.032-9.008-9.007v-12.173c0-4.994,4.014-9.063,9.008-9.128h30.187c4.994,0.065,9.008,4.134,9.008,9.128
		L129.929,313.544L129.929,313.544z M406.231,313.544c-0.066,4.993-4.135,9.007-9.129,9.007H157.559
		c-4.976,0-9.007-4.032-9.007-9.007v-12.173c-0.001-4.994,4.013-9.063,9.007-9.128h239.543c5.014,0.064,9.063,4.113,9.129,9.128
		V313.544z"/>
	<path fill="#FFFFFF" stroke="#88B04B" stroke-width="20" stroke-miterlimit="10" d="M297.293,93.963h313.427
		c19.965,0,36.149,16.186,36.149,36.149v265.227c0,19.965-16.186,36.149-36.149,36.149H297.293
		c-19.966,0-36.149-16.186-36.149-36.149V130.114C261.142,110.149,277.327,93.963,297.293,93.963z"/>
	<path fill="#88B04B" d="M300.701,124.515h30.188c4.975,0,9.007,4.032,9.007,9.007v12.537c0,4.976-4.032,9.008-9.007,9.008h-30.188
		c-4.975,0-9.007-4.032-9.007-9.008v-12.537C291.694,128.547,295.726,124.515,300.701,124.515z"/>
	<path fill="#88B04B" d="M367.524,124.515h239.664c4.975,0,9.008,4.032,9.008,9.007v12.537c0,4.976-4.033,9.008-9.008,9.008H367.524
		c-4.976,0-9.007-4.032-9.007-9.008v-12.537C358.517,128.547,362.55,124.515,367.524,124.515z"/>
	<path fill="#88B04B" d="M341.476,506.468c0.068-6.186-4.89-11.253-11.073-11.321c-0.122-0.002-0.245-0.001-0.368,0.002
		l-94.819,1.704l221.043-217.512l-3.165,95.793c-0.404,6.306,4.38,11.745,10.686,12.149c0.171,0.012,0.342,0.019,0.514,0.021h26.048
		c6.317,0.013,11.452-5.101,11.465-11.419c0-0.251-0.008-0.503-0.023-0.753l1.826-165.416c0.066-6.186-4.892-11.252-11.076-11.319
		c-0.041,0-0.081-0.001-0.122-0.001l-165.416-1.582c-6.251-0.066-11.374,4.945-11.44,11.197v0.001v26.048
		c-0.068,6.186,4.889,11.253,11.072,11.322c0.123,0.001,0.245,0,0.368-0.003l95.186-1.095l-221.65,217.023l3.165-95.186
		c0.404-6.306-4.38-11.745-10.687-12.149c-0.171-0.011-0.342-0.019-0.513-0.021h-26.048c-6.226-0.001-11.31,4.976-11.441,11.198
		L153.3,530.569c-0.067,6.205,4.872,11.31,11.076,11.441l165.537,1.582c6.205,0.001,11.254-4.993,11.32-11.198v-26.169
		L341.476,506.468z"/>
</g>
</svg>
